…
Before plotting, we need to create the two way frequency table:

twoway_freq <-
  trips %>%
  select(StartNH, EndNH) %>%
  table() %>%
  as_tibble() %>%
  # remove the null combinations
  filter(n != 0) %>%
  arrange(desc(n))

twoway_freq

## # A tibble: 137 x 3
##    StartNH        EndNH               n
##    <chr>          <chr>           <int>
##  1 Downtown       Downtown       164912
##  2 University     University      87037
##  3 Southeast Core Southeast Core  29872
##  4 West Core      University      12257
##  5 University     West Core        9848
##  6 Northeast Core Northeast Core   8144
##  7 Downtown       Northeast Core   6763
##  8 West Core      West Core        6200
##  9 Downtown       University       5999
## 10 University     Downtown         5618
## # … with 127 more rows
…
