…
## 
## Attaching package: 'rpart'

## The following object is masked from 'package:dials':
## 
##     prune

And sort the models by their metrics:

tree_resampling %>%
  collect_metrics() %>%
  arrange(desc(mean))

## # A tibble: 50 x 8
##    cost_complexity tree_depth .metric .estimator  mean     n std_err .config    
##              <dbl>      <int> <chr>   <chr>      <dbl> <int>   <dbl> <chr>      
##  1    0.0000000001          8 roc_auc hand_till  0.889     5 0.00358 Preprocess…
##  2    0.0000000178          8 roc_auc hand_till  0.889     5 0.00358 Preprocess…
##  3    0.00000316            8 roc_auc hand_till  0.889     5 0.00358 Preprocess…
##  4    0.0000000001         11 roc_auc hand_till  0.886     5 0.00440 Preprocess…
##  5    0.0000000178         11 roc_auc hand_till  0.886     5 0.00440 Preprocess…
##  6    0.00000316           11 roc_auc hand_till  0.886     5 0.00440 Preprocess…
##  7    0.000562              8 roc_auc hand_till  0.883     5 0.00407 Preprocess…
##  8    0.0000000001         15 roc_auc hand_till  0.883     5 0.00408 Preprocess…
##  9    0.0000000178         15 roc_auc hand_till  0.883     5 0.00408 Preprocess…
## 10    0.00000316           15 roc_auc hand_till  0.883     5 0.00408 Preprocess…
## # … with 40 more rows
…
